{
  "images" : [
    {
      "idiom" : "universal",
      "filename" : "Security_lm_sidebar.pdf"
    },
    {
      "idiom" : "universal",
      "filename" : "Security_dm_sidebar.pdf",
      "appearances" : [
        {
          "appearance" : "luminosity",
          "value" : "dark"
        }
      ]
    }
  ],
  "info" : {
    "version" : 1,
    "author" : "xcode"
  }
}